{
    "inputMessageMetadata": {
        "messagePayload": {
            "connectorName": "#_custom_mule_metadata_type_#",
            "typeId": "in"
        }
    },
    "outputMessageMetadata": {
        "messagePayload": {
            "connectorName": "#_custom_mule_metadata_type_#",
            "typeId": "out"
        }
    },
    "id": "9f3dd210-90f2-4ede-90a1-57c8ee09289a",
    "version": "5.2.0.0"
}